Working more with the Baumann dataset
…
Comparing two models

For this post, I will again use the Baumann dataset from the car package, as the data are test score data from an educational intervention.

library(tidyverse)
library(car)
library(broom)
library(knitr)

baumann <- carData::Baumann %>% 
  as_tibble()

baumann

## # A tibble: 66 x 6
##    group pretest.1 pretest.2 post.test.1 post.test.2 post.test.3
##  * <fct>     <int>     <int>       <int>       <int>       <int>
##  1 Basal         4         3           5           4          41
##  2 Basal         6         5           9           5          41
##  3 Basal         9         4           5           3          43
##  4 Basal        12         6           8           5          46
##  5 Basal        16         5          10           9          46
##  6 Basal        15        13           9           8          45
##  7 Basal        14         8          12           5          45
##  8 Basal        12         7           5           5          32
##  9 Basal        12         3           8           7          33
## 10 Basal         8         8           7           7          39
## # ... with 56 more rows
…
