COVID-19 New York Times plots
…
library(tidyverse)
library(lubridate)
library(scales)

theme_set(theme_minimal(base_size = 11))

covid <- read.csv("https://raw.githubusercontent.com/nytimes/covid-19-data/master/us-states.csv") %>% 
  as_tibble() %>% 
  mutate(date = ymd(date), 
         state = as.character(state))

covid

## # A tibble: 2,217 x 5
##    date       state       fips cases deaths
##    <date>     <chr>      <int> <int>  <int>
##  1 2020-01-21 Washington    53     1      0
##  2 2020-01-22 Washington    53     1      0
##  3 2020-01-23 Washington    53     1      0
##  4 2020-01-24 Illinois      17     1      0
##  5 2020-01-24 Washington    53     1      0
##  6 2020-01-25 California     6     1      0
##  7 2020-01-25 Illinois      17     1      0
##  8 2020-01-25 Washington    53     1      0
##  9 2020-01-26 Arizona        4     1      0
## 10 2020-01-26 California     6     2      0
## # … with 2,207 more rows
…
