Working with web data in R part I - Scraping HTML tables
…
Next, I’ll pipe this data frame to a tibble data type and then pivot longer and clean up some of the date data for easier plotting.

unemploy_final <- unemploy_df %>% 
  as_tibble() %>% 
  pivot_longer(cols = -c("year"),
               names_to = "month",
               values_to = "unemployment_rate") %>% 
  mutate(date = mdy(paste0(month, "/01", year)),
         month = month(date, label = TRUE),
         unemployment_rate = unemployment_rate / 100) %>% 
  select(date, everything())

unemploy_final

## # A tibble: 156 x 4
##    date        year month unemployment_rate
##    <date>     <int> <ord>             <dbl>
##  1 2020-01-01  2020 Jan               0.036
##  2 2020-02-01  2020 Feb               0.035
##  3 2020-03-01  2020 Mar               0.044
##  4 2020-04-01  2020 Apr               0.147
##  5 2020-05-01  2020 May               0.133
##  6 2020-06-01  2020 Jun               0.111
##  7 2020-07-01  2020 Jul               0.102
##  8 2020-08-01  2020 Aug               0.084
##  9 2020-09-01  2020 Sep               0.079
## 10 2020-10-01  2020 Oct              NA    
## # ... with 146 more rows
…
