For loops for quick summaries in R
…
Because I often work with categorical data, I find myself making lots of quick, sorted counts of variables in a dataset. I find that this is a really common technique to get to know a dataset you’re working with; I’ve also noticed David Robinson do it often in his screencasts. (If you haven’t checked these out, I cannot recommend these enough!)

Using for loops

As always, I need to make a disclaimer that I know I should be using some type of functional like lapply or purrr::map, but again since I’m newer to programming, I find it best to make a for loop first to better understand what’s happening.

This example uses a sample of the General Social Survey found in the forcats package.

library(tidyverse)

gss <- forcats::gss_cat %>% as_tibble()

gss

## # A tibble: 21,483 x 9
##     year marital     age race  rincome    partyid     relig     denom    tvhours
##    <int> <fct>     <int> <fct> <fct>      <fct>       <fct>     <fct>      <int>
##  1  2000 Never ma~    26 White $8000 to ~ Ind,near r~ Protesta~ Souther~      12
##  2  2000 Divorced     48 White $8000 to ~ Not str re~ Protesta~ Baptist~      NA
##  3  2000 Widowed      67 White Not appli~ Independent Protesta~ No deno~       2
##  4  2000 Never ma~    39 White Not appli~ Ind,near r~ Orthodox~ Not app~       4
##  5  2000 Divorced     25 White Not appli~ Not str de~ None      Not app~       1
##  6  2000 Married      25 White $20000 - ~ Strong dem~ Protesta~ Souther~      NA
##  7  2000 Never ma~    36 White $25000 or~ Not str re~ Christian Not app~       3
##  8  2000 Divorced     44 White $7000 to ~ Ind,near d~ Protesta~ Luthera~      NA
##  9  2000 Married      44 White $25000 or~ Not str de~ Protesta~ Other          0
## 10  2000 Married      47 White $25000 or~ Strong rep~ Protesta~ Souther~       3
## # ... with 21,473 more rows
…
First, though, I want to group by the first column year for all my counts, so I’ll tweak the for loop again.

gss_list <- vector("list", ncol(gss)) # 1. output
for (i in 1:ncol(gss)) {              # 2. sequence
  gss_list[[i]] <- gss %>%            # 3. body
    group_by(year, gss[[i]]) %>% #adding the year column
    summarize(n = n()) %>% 
    ungroup()
  colnames(gss_list[[i]])[2] <- names(gss)[i] #here I rename the column to its orig name. Note: it's the second column now!
}
#printing the 8th item in the list for an example.
gss_list[[7]]

## # A tibble: 118 x 3
##     year relig                       n
##    <int> <fct>                   <int>
##  1  2000 No answer                   3
##  2  2000 Don't know                  1
##  3  2000 Inter-nondenominational    17
##  4  2000 Native american             4
##  5  2000 Christian                  39
##  6  2000 Orthodox-christian         12
##  7  2000 Moslem/islam               12
##  8  2000 Other eastern               1
##  9  2000 Hinduism                    8
## 10  2000 Buddhism                   17
## # ... with 108 more rows
…
